{
  "servers": [
    {
      "port": "5445",
      "host": "localhost",
      "alias": "live-flume-01",
      "queries": "flume-queries.json"
    }
  ],
  "output" : {
    "target": "localFlumeTest"
  }
}